{
  "name": "svg-loader",
  "title": "SVG loader",
  "description": "Loads an .svg file for loading walls into the current active scene.",
  "version": "1.3",
  "author": "Moerill",
  "scripts": ["wall-loader.js"],
  "styles": ["wall-loader.css"],
  "minimumCoreVersion": "0.5.3",
  "download": "https://gitlab.com/moerills-fvtt-modules/svg-loader/-/archive/master/svg-loader-master.zip",
  "manifest": "https://gitlab.com/moerills-fvtt-modules/svg-loader/raw/master/module.json",
  "url": "https://gitlab.com/moerills-fvtt-modules/svg-loader"
}
